<svg xmlns="http://www.w3.org/2000/svg" width="12" height="12" viewBox="0 0 12 12">
    <g fill="none" fill-rule="evenodd">
        <rect width="11.75" height="12" fill="#B8BFCA" rx="3"/>
        <path fill="#FFF" d="M5.692 7.987c.511 0 .89.403.89.939v.02c0 .536-.379.939-.89.939-.51 0-.89-.404-.89-.939v-.02c0-.536.378-.939.89-.939zM5.876 2.5c1.457 0 2.362.831 2.363 2.174v.02c0 1.125-.611 1.814-1.872 2.1l-.02.13c-.04.278-.252.565-.583.565H5.69c-.298 0-.537-.235-.583-.567l-.094-.691a.637.637 0 0 1 .097-.467.572.572 0 0 1 .406-.23c.787-.107 1.143-.354 1.143-.802v-.02c0-.406-.297-.639-.802-.639-.388 0-.728.123-1.059.389a.764.764 0 0 1-.47.177c-.4 0-.737-.36-.737-.787a.8.8 0 0 1 .273-.606c.565-.502 1.223-.746 2.013-.746z"/>
    </g>
</svg>
