<svg xmlns="http://www.w3.org/2000/svg" xmlns:xlink="http://www.w3.org/1999/xlink" width="85" height="11" viewBox="0 0 85 11">
    <defs>
        <path id="a" d="M0 .586h12.144v10.27H0z"/>
        <path id="c" d="M.026.586h12.143v10.27H.026z"/>
    </defs>
    <g fill="none" fill-rule="evenodd">
        <path fill="#044DA1" d="M64.966.843h-2.105a.231.231 0 0 0-.232.231v9.666c0 .128.104.233.232.233h2.105a.233.233 0 0 0 .233-.233V1.074a.232.232 0 0 0-.233-.23M81.502 9.586h-.398a.134.134 0 0 1 0-.268h1.091c.072 0 .13.06.13.133a.133.133 0 0 1-.13.135h-.401v1.243c0 .08-.066.144-.146.144a.145.145 0 0 1-.146-.144V9.586zM82.619 9.454c0-.08.064-.145.146-.145h.03c.064 0 .106.032.134.077l.497.779.501-.782a.144.144 0 0 1 .13-.074h.031c.083 0 .146.065.146.145v1.375c0 .08-.063.143-.146.143a.145.145 0 0 1-.143-.143v-.986l-.402.603c-.03.048-.067.076-.121.076-.052 0-.09-.028-.12-.076l-.4-.598v.984a.14.14 0 0 1-.142.14.138.138 0 0 1-.141-.14V9.454zM24.688.844h-1.79a.39.39 0 0 0-.39.39v6.568c0 .693-.966.915-2.153.915h-2.66c-1.186 0-2.153-.222-2.153-.915V1.234a.39.39 0 0 0-.39-.39h-1.789a.39.39 0 0 0-.39.39v6.72c0 1.16.505 1.893 1.465 2.469.961.576 3.198.55 3.862.55h1.451c.663 0 2.901.026 3.861-.55.962-.576 1.466-1.31 1.466-2.47v-6.72a.39.39 0 0 0-.39-.39M77.192.911a.236.236 0 0 1 .166-.067h2.932a.237.237 0 0 1 .145.425l-4.306 3.748a.236.236 0 0 1-.343-.007L74.32 3.732a.238.238 0 0 1 .022-.34l2.85-2.48zM77.192 10.904a.237.237 0 0 0 .166.069h2.932a.237.237 0 0 0 .145-.426l-4.306-3.749a.238.238 0 0 0-.343.009L74.32 8.083a.238.238 0 0 0 .022.34l2.85 2.481z"/>
        <path fill="#AFD135" d="M69.362 10.91a.235.235 0 0 1-.16.063h-2.937a.238.238 0 0 1-.167-.405l5.146-4.479a.237.237 0 0 0 .008-.355l-5.14-4.473a.237.237 0 0 1 .153-.417h2.937c.062 0 .118.023.16.062l5.54 4.822a.238.238 0 0 1 0 .359l-5.54 4.823z"/>
        <path fill="#044DA1" d="M32.746 3.335c0-.13.106-.237.237-.237h3.643a.39.39 0 0 0 .39-.39V1.234a.39.39 0 0 0-.39-.39H26.297a.39.39 0 0 0-.39.39v1.474c0 .215.174.39.39.39h3.643c.131 0 .237.107.237.237v7.247c0 .216.174.39.39.39h1.782a.39.39 0 0 0 .391-.39l.006-7.247z"/>
        <g transform="translate(0 .19)">
            <mask id="b" fill="#fff">
                <use xlink:href="#a"/>
            </mask>
            <path fill="#044DA1" d="M9.295 6.939c.031.026.07.048.115.048.09 0 .164-.073.164-.163v-5.78a.39.39 0 0 1 .39-.39h1.789a.39.39 0 0 1 .39.39v8.373c0 .854-.334 1.228-.66 1.371-.327.143-1.318.087-1.91-.428L3.168 4.782s-.343-.3-.367-.319a.142.142 0 0 0-.23.112v5.818a.39.39 0 0 1-.392.39H.391a.39.39 0 0 1-.39-.39V2.025C0 1.171.333.798.66.655.986.51 1.977.565 2.568 1.08L8.977 6.66s.297.262.318.279" mask="url(#b)"/>
        </g>
        <g transform="translate(49.628 .19)">
            <mask id="d" fill="#fff">
                <use xlink:href="#c"/>
            </mask>
            <path fill="#044DA1" d="M9.32 6.939c.032.026.07.048.115.048a.163.163 0 0 0 .165-.163v-5.78a.39.39 0 0 1 .39-.39h1.789a.39.39 0 0 1 .39.39v8.373c0 .854-.334 1.228-.66 1.371-.328.143-1.318.087-1.91-.428L3.193 4.782s-.343-.3-.367-.319a.142.142 0 0 0-.231.112v5.818a.39.39 0 0 1-.39.39H.416a.39.39 0 0 1-.39-.39V2.025c0-.854.333-1.227.66-1.37.326-.144 1.317-.089 1.908.426L9.002 6.66s.297.262.318.279" mask="url(#d)"/>
        </g>
        <path fill="#044DA1" d="M62.63 1.234a.39.39 0 0 1 .39-.39h1.789a.39.39 0 0 1 .39.39v9.348a.39.39 0 0 1-.39.39H63.02a.391.391 0 0 1-.39-.39V1.234zM42.505 6.098h-2.617a.142.142 0 0 1-.1-.242l1.286-1.86c.008-.012.02-.019.03-.028.007-.008.013-.017.023-.022a.126.126 0 0 1 .058-.015c.004 0 .007-.003.011-.003l.012.003a.13.13 0 0 1 .057.015c.01.005.017.014.024.022.01.01.022.016.03.029l1.286 1.859a.142.142 0 0 1-.1.242m6.26 4.485L42.44 1.445a1.506 1.506 0 0 0-2.486 0h.001l-6.327 9.138a.236.236 0 0 0 .181.39h2.314a.236.236 0 0 0 .205-.12l1.638-2.365a.235.235 0 0 1 .213-.135h6.036c.095 0 .176.055.214.135l1.637 2.365c.041.072.118.12.206.12h2.314a.237.237 0 0 0 .18-.39"/>
    </g>
</svg>
