{
  "refreshedAt": 1508829313398,
  "sourceLastUpdatedAt": "N/A",
  "summary": {
    "endDate": "2017-10-31",
    "startDate": "2017-10-01",
    "currentDate": "2017-10-24",
    "totalMtdSpend": "10742.10",
    "yesterdaySpend": "410.93",
    "lastMonthSpendAtThisTime": "10670.65",
    "thisMonthCredits": "10695.04",
    "lastMonthCredits": "13207.12",
    "lastMonthSpend": "13207.94",
    "dayBeforeYesterdaySpend": "415.29",
    "subscriptionCost": "0.0",
    "estimatedSpendForCurrentMonth": "13695.98",
    "estimatedSpendForYear": "129558.69",
    "averageDailySpend": "365.15"
  }
}