<svg xmlns="http://www.w3.org/2000/svg" width="69" height="77" viewBox="0 0 69 77">
    <g fill="none" fill-rule="evenodd">
        <path stroke="#D5DAE0" stroke-dasharray="0,5.97844123840332" stroke-linecap="round" stroke-linejoin="round" stroke-width="2" d="M32 76c17.12 0 31-8.059 31-18S49.12 40 32 40C14.88 40 1 48.059 1 58s13.88 18 31 18z"/>
        <g transform="translate(9 1)">
            <path stroke="#627386" stroke-linecap="round" stroke-linejoin="round" stroke-width="2" d="M42.256 48.693c-4.455 0-8.945-3.601-8.945-11.654 0-8.052 4.788-17.298 10.898-20.886a10.614 10.614 0 0 1 5.351-1.587c4.456 0 8.945 3.609 8.945 11.654s-4.788 17.298-10.898 20.886a10.547 10.547 0 0 1-5.35 1.587z"/>
            <ellipse cx="45.908" cy="31.623" stroke="#F2F4F6" stroke-linecap="round" stroke-linejoin="round" stroke-width="2" rx="14.346" ry="8.025" transform="rotate(-66.95 45.908 31.623)"/>
            <path stroke="#D5DAE0" stroke-linecap="round" stroke-linejoin="round" stroke-width="2" d="M50.896 35.087c-1.506 3.153-3.662 5.858-6.009 7.238-.79.507-1.697.799-2.63.848-2.598 0-3.52-3.305-3.52-6.134"/>
            <path stroke="#FFF" stroke-linecap="round" stroke-linejoin="round" stroke-width="2" d="M34.668 37.04c0-7.674 4.489-16.326 10.22-19.693a9.314 9.314 0 0 1 4.672-1.38c2.457-.015 4.73 1.323 5.94 3.498"/>
            <path stroke="#627386" stroke-linecap="round" stroke-linejoin="round" stroke-width="2" d="M42.256 41.793c-1.492 0-2.163-2.387-2.163-4.754 0-5.692 3.438-12.516 7.514-14.91a3.948 3.948 0 0 1 1.953-.656c1.492 0 2.163 2.387 2.163 4.747 0 5.693-3.438 12.517-7.514 14.91a3.982 3.982 0 0 1-1.953.663z"/>
            <path fill="#FFF" stroke="#627386" stroke-linecap="round" stroke-linejoin="round" stroke-width="2" d="M0 14.304v40.751C0 62.576 10.376 68.67 23.173 68.67c12.797 0 23.173-6.093 23.173-13.614V14.304H0z"/>
            <path fill="#F2F4F6" d="M23.18 68.669c12.796 0 23.172-6.093 23.172-13.614V14.304H23.18v54.365z"/>
            <ellipse cx="23.18" cy="14.304" fill="#FFF" rx="23.173" ry="13.614"/>
            <path stroke="#627386" stroke-linecap="round" stroke-linejoin="round" stroke-width="2" d="M0 14.304v40.751C0 62.576 10.376 68.67 23.173 68.67c12.797 0 23.173-6.093 23.173-13.614V14.304"/>
            <ellipse cx="23.18" cy="14.304" fill="#FFF" stroke="#627386" stroke-linecap="round" stroke-linejoin="round" stroke-width="2" rx="18.995" ry="10.357"/>
            <path fill="#F2F4F6" d="M23.18 3.947c-10.492 0-18.989 4.637-18.989 10.35s8.504 10.35 18.989 10.35v-20.7z"/>
            <ellipse cx="23.18" cy="17.761" fill="#D5DAE0" stroke="#627386" stroke-linecap="round" stroke-linejoin="round" stroke-width="2" rx="17.903" ry="6.893"/>
            <ellipse cx="23.18" cy="14.304" stroke="#627386" stroke-linecap="round" stroke-linejoin="round" stroke-width="2" rx="18.995" ry="10.357"/>
            <path stroke="#627386" stroke-linecap="round" stroke-linejoin="round" stroke-width="2" d="M0 14.304c0-3.105 1.77-5.962 4.747-8.28a25.32 25.32 0 0 1 8.816-4.14 38.446 38.446 0 0 1 19.28 0 25.28 25.28 0 0 1 8.816 4.14c2.97 2.29 4.748 5.147 4.748 8.28"/>
            <path stroke="#D5DAE0" stroke-linecap="round" stroke-linejoin="round" stroke-width="2" d="M43.436 20.914a19.368 19.368 0 0 1-6.022 4.14 31.179 31.179 0 0 1-6.971 2.187c-2.395.46-4.827.691-7.263.69a38.379 38.379 0 0 1-7.264-.69 31.294 31.294 0 0 1-6.971-2.194 19.368 19.368 0 0 1-6.022-4.14"/>
            <path stroke="#627386" stroke-linecap="round" stroke-linejoin="round" stroke-width="2" d="M11.84 22.211c-.366-.959-1.227-1.283-2.224-.69-1.356.787-2.414 2.891-2.414 4.699"/>
            <g stroke-linecap="round" stroke-linejoin="round" stroke-width="2">
                <path fill="#D3EDFD" stroke="#1B6DC6" d="M11.386 51.992c0 1.02-.61 1.483-1.356 1.048l-2.502-1.476-2.51-1.47a3.315 3.315 0 0 1-1.356-2.636v-7.59a4.07 4.07 0 0 1 .604-2.325l2-2.85c.597-.855 1.913-.083 2.516 1.477l2 5.202c.383.964.587 1.99.604 3.03v7.59z"/>
                <path stroke="#627386" d="M7.202 26.213v10.191"/>
                <path fill="#D3EDFD" stroke="#1B6DC6" d="M7.202 40.641v3.685M7.202 47.196v-.104"/>
            </g>
        </g>
    </g>
</svg>
