{
  "items": [
    {
      "issues": 1045,
      "date": "2018-04-10",
      "time": 1523371069757.5667
    },
    {
      "issues": 1060,
      "date": "2018-04-12",
      "time": 1523509674569.6545
    }
  ],
  "refreshedAt": 1523523714042,
  "count": 8
}