<?xml version="1.0" encoding="UTF-8" standalone="no"?>
<svg width="21px" height="20px" viewBox="0 0 21 20" version="1.1" xmlns="http://www.w3.org/2000/svg" xmlns:xlink="http://www.w3.org/1999/xlink">
    <!-- Generator: sketchtool 3.8.3 (29802) - http://www.bohemiancoding.com/sketch -->
    <title>DEB40A4A-5E91-4B43-AB5E-45CAD29C211E</title>
    <desc>Created with sketchtool.</desc>
    <defs></defs>
    <g id="Page-1" stroke="none" stroke-width="1" fill="none" fill-rule="evenodd">
        <g id="Library" transform="translate(-402.000000, -243.000000)" fill="#979797">
            <g id="Top-header-Copy-4" transform="translate(203.000000, 72.000000)">
                <g id="Top-header">
                    <g id="Group-2" transform="translate(30.000000, 0.000000)">
                        <g id="Ops-logo" transform="translate(169.000000, 171.000000)">
                            <path d="M17.5,15 C17.5,16.38125 16.38125,17.5 15,17.5 C13.61875,17.5 12.5,16.38125 12.5,15 C12.5,13.61875 13.61875,12.5 15,12.5 C16.38125,12.5 17.5,13.61875 17.5,15 L17.5,15 Z" id="Shape"></path>
                            <path d="M14.625,20 L14.625,20 C13.625,20 12.625,19.75 11.75,19.125 L4,15 C3.375,14.5 2.875,14.25 2.375,13.75 C0.875,12.25 0,10.125 0,8 C0,5.875 0.875,3.875 2.375,2.375 C3.875,0.875 5.875,0 8,0 C10.125,0 12.125,0.875 13.75,2.375 C14.25,2.875 14.5,3.25 15,3.875 L19.375,11.875 C20.625,14 20.25,16.625 18.5,18.375 C17.375,19.5 16.125,20 14.625,20 L14.625,20 Z M8,1.25 C6.25,1.25 4.5,2 3.25,3.25 C2,4.5 1.25,6.25 1.25,8 C1.25,9.875 2,11.5 3.25,12.75 C3.625,13.125 4,13.375 4.625,13.75 L12.5,18 C13.25,18.5 14,18.625 14.75,18.625 L14.75,18.625 C15.875,18.625 16.875,18.25 17.625,17.375 C19,16 19.25,14 18.25,12.375 L13.875,4.375 C13.5,3.875 13.25,3.5 12.875,3.125 C11.5,2 9.875,1.25 8,1.25 L8,1.25 Z" id="Shape"></path>
                            <path d="M13.75,8.75 L13.75,7.5 L12,6.875 C11.875,6.625 11.875,6.5 11.75,6.25 L12.5,4.625 L11.625,3.75 L10,4.5 C9.75,4.375 9.625,4.375 9.375,4.25 L8.75,2.5 L7.5,2.5 L6.875,4.25 C6.625,4.375 6.5,4.375 6.25,4.5 L4.625,3.75 L3.75,4.625 L4.5,6.25 C4.375,6.5 4.375,6.625 4.25,6.875 L2.5,7.5 L2.5,8.75 L4.25,9.375 C4.375,9.625 4.375,9.75 4.5,10 L3.75,11.625 L4.625,12.5 L6.25,11.75 C6.5,11.875 6.625,12 6.875,12 L7.5,13.75 L8.75,13.75 L9.375,12 C9.625,11.875 9.75,11.875 10,11.75 L11.625,12.5 L12.5,11.625 L11.75,10 C11.875,9.75 12,9.625 12,9.375 L13.75,8.75 L13.75,8.75 Z M8.125,10 C7.125,10 6.25,9.125 6.25,8.125 C6.25,7.125 7.125,6.25 8.125,6.25 C9.125,6.25 10,7.125 10,8.125 C10,9.125 9.125,10 8.125,10 L8.125,10 Z" id="Shape"></path>
                        </g>
                    </g>
                </g>
            </g>
        </g>
    </g>
</svg>