{
	"next": "",
	"totalSpend": 12129.25,
	"refreshedAt": 1550124145000,
	"currency": "USD",
	"items": [{
		"date": "2019-02",
		"spend": 12129.25,
		"data": [{
			"key": "Subscription 1 (12345627-1111-2222-3444-1111222233334446)",
			"value": 3745.42
		}, {
			"key": "Subscription 2 (12345627-1111-2222-3444-1111222233335555)",
			"value": 3464.14
		}, {
			"key": "Subscription 3 (12345627-1111-4444-3444-1111222233335555)",
			"value": 3258.17
		}, {
			"key": "Subscription 4 (12345627-1111-3333-3444-1111222233335555)",
			"value": 1083.86
		}, {
			"key": "Others",
			"value": 577.66
		}]
	}]
}