{
	"statusCode": 200,
	"status": "SUCCESS",
	"details": null,
	"message": "SUCCESS",
	"data": {
		"totalSpend": 1058823.6420150802,
		"items": [{
			"key": "Subscription 1",
			"percentage": 28.22182704816723,
			"spend": 298819.3769946013
		}, {
			"key": "Subscription 2",
			"percentage": 14.31500549762931,
			"spend": 151570.66256465763
		}, {
			"key": "Subscription 3",
			"percentage": 10.318162828159812,
			"spend": 109251.14744616792
		}, {
			"key": "Subscription 4",
			"percentage": 9.805706354065089,
			"spend": 103825.13714341611
		}, {
			"key": "Subscription 5",
			"percentage": 8.81694910953313,
			"spend": 93355.94167617487
		},  
		{
			"key": "Others",
			"percentage": 9.650911842720078,
			"spend": 102186.13626075342
		}]
	}
}
